…
``` r
sw_peeps <- sw_people %>%  {
  tibble(
    name = map_chr(., "name"),  #character
    height = map_chr(., "height"), #character
    mass = map_chr(., "mass"), #character
    films = map(., "films") #list
  )}
sw_peeps
```

    # A tibble: 87 × 4
       name               height mass  films    
       <chr>              <chr>  <chr> <list>   
     1 Luke Skywalker     172    77    <chr [5]>
     2 C-3PO              167    75    <chr [6]>
     3 R2-D2              96     32    <chr [7]>
     4 Darth Vader        202    136   <chr [4]>
     5 Leia Organa        150    49    <chr [5]>
     6 Owen Lars          178    120   <chr [3]>
     7 Beru Whitesun lars 165    75    <chr [3]>
     8 R5-D4              97     32    <chr [1]>
     9 Biggs Darklighter  183    84    <chr [1]>
    10 Obi-Wan Kenobi     182    77    <chr [6]>
    # ℹ 77 more rows
…
    Warning: There was 1 warning in `mutate()`.
    ℹ In argument: `mass = parse_double(mass, na = "unknown")`.
    Caused by warning:
    ! 1 parsing failure.
    row col               expected actual
     16  -- no trailing characters  1,358

``` r
sw_peeps2
```

    # A tibble: 173 × 6
       name           height  mass episode_id episode_name            trilogy       
       <chr>           <dbl> <dbl>      <dbl> <chr>                   <fct>         
     1 Luke Skywalker    172    77          3 Revenge of the Sith     Prequels: Epi…
     2 Luke Skywalker    172    77          6 Return of the Jedi      Originals: Ep…
     3 Luke Skywalker    172    77          5 The Empire Strikes Back Originals: Ep…
     4 Luke Skywalker    172    77          4 A New Hope              Originals: Ep…
     5 Luke Skywalker    172    77          7 The Force Awakens       Sequels: Epis…
     6 C-3PO             167    75          2 Attack of the Clones    Prequels: Epi…
     7 C-3PO             167    75          1 The Phantom Menace      Prequels: Epi…
     8 C-3PO             167    75          3 Revenge of the Sith     Prequels: Epi…
     9 C-3PO             167    75          6 Return of the Jedi      Originals: Ep…
    10 C-3PO             167    75          5 The Empire Strikes Back Originals: Ep…
    # ℹ 163 more rows
…
